
type 2 side 0
[1,45]((0.00000,-0.06250,0.06250,0.00000,-0.06250,0.00000,0.06250,-0.06250,0.00000,0.00000,0.00000,0.00000,0.00000,0.00000,0.00000,0.00000,0.00000,0.00000,0.00000,0.03125,-0.03125,0.00000,0.03125,0.00000,-0.03125,0.03125,0.00000,0.00000,-0.00391,0.00000,0.00000,0.00000,0.00000,0.00000,0.00000,0.00000,0.00000,0.00000,0.00000,0.00000,0.00000,0.00000,0.00000,0.00000,0.00000))
[1,135]((0.00000,0.00000,0.00000,0.00000,0.00000,0.00000,0.00000,-0.12500,0.12500,0.00000,0.12500,0.00000,0.00000,0.12500,0.00000,0.00000,0.12500,0.00000,0.12500,-0.12500,0.00000,0.00000,0.00000,0.00000,0.00000,0.00000,0.00000,0.00000,-0.06250,0.06250,0.00000,-0.03125,0.03125,0.00000,-0.03125,0.03125,0.00000,0.03125,0.00000,0.00000,0.00000,0.00000,0.00000,-0.03125,0.00000,-0.03125,0.03125,0.00000,-0.03125,0.03125,0.00000,-0.06250,0.06250,0.00000,0.00000,0.00000,0.00000,0.00000,0.00000,0.00000,0.00000,0.06250,-0.06250,0.00000,-0.06250,0.00000,0.00000,-0.06250,0.00000,0.00000,-0.06250,0.00000,-0.06250,0.06250,0.00000,0.00000,0.00000,0.00000,0.00000,0.00000,0.00000,0.00000,0.00000,0.00000,0.00000,0.00781,0.00000,0.00000,0.00000,0.00000,0.00000,0.09375,-0.09375,0.00000,0.04688,-0.04688,0.00000,0.04688,-0.04688,0.00000,-0.04688,0.00000,0.00000,0.00000,0.00000,0.00000,0.04688,0.00000,0.04688,-0.04688,0.00000,0.04688,-0.04688,0.00000,0.09375,-0.09375,0.00000,0.00000,-0.00195,0.00000,0.00000,-0.00195,0.00000,0.00000,-0.00391,0.00000,0.00000,-0.00391,0.00000,0.00000,-0.00195,0.00000,0.00000,-0.00195,0.00000))

type 2 side 1
[1,45]((0.00000,0.00000,0.06250,0.06250,0.00000,0.00000,0.00000,0.06250,0.00000,0.00000,0.00000,0.00000,0.00000,0.00000,0.00000,0.00000,0.00000,0.00000,0.00000,0.00000,-0.03125,-0.03125,0.00000,0.00000,0.00000,-0.03125,0.00000,0.00391,0.00000,0.00000,0.00000,0.00000,0.00000,0.00000,0.00000,0.00000,0.00000,0.00000,0.00000,0.00000,0.00000,0.00000,0.00000,0.00000,0.00000))
[1,135]((0.00000,0.00000,0.00000,0.00000,0.00000,0.00000,0.00000,0.00000,0.12500,0.12500,0.00000,0.00000,0.00000,0.00000,0.00000,0.00000,0.00000,0.00000,0.00000,0.00000,0.00000,0.00000,0.12500,0.00000,0.00000,0.00000,0.00000,0.00000,0.00000,-0.03125,0.00000,0.00000,0.03125,0.00000,0.00000,0.00000,0.00000,0.00000,0.00000,-0.03125,0.00000,0.00000,0.03125,0.00000,0.00000,0.00000,0.03125,0.00000,0.00000,0.00000,0.00000,0.00000,-0.03125,0.00000,0.00000,0.00000,0.00000,0.00000,0.00000,0.00000,0.00000,0.00000,-0.06250,-0.06250,0.00000,0.00000,0.00000,0.00000,0.00000,0.00000,0.00000,0.00000,0.00000,0.00000,0.00000,0.00000,-0.06250,0.00000,0.00000,0.00000,0.00000,0.00781,0.00000,0.00000,0.00781,0.00000,0.00000,0.00781,0.00000,0.00000,0.00000,0.00000,0.04688,0.00000,0.00000,-0.04688,0.00000,0.00000,0.00000,0.00000,0.00000,0.00000,0.04688,0.00000,0.00000,-0.04688,0.00000,0.00000,0.00000,-0.04688,0.00000,0.00000,0.00000,0.00000,0.00000,0.04688,0.00000,-0.00195,0.00000,0.00000,0.00000,0.00000,0.00000,0.00195,0.00000,0.00000,-0.00195,0.00000,0.00000,0.00195,0.00000,0.00000,0.00000,0.00000,0.00000))

type 2 side 2
[1,45]((-0.06250,0.06250,0.00000,-0.06250,0.00000,0.00000,-0.06250,0.00000,0.06250,0.00000,0.00000,0.00000,0.00000,0.00000,0.00000,0.00000,0.00000,0.00000,0.03125,-0.03125,0.00000,0.03125,0.00000,0.00000,0.03125,0.00000,-0.03125,-0.00391,0.00000,0.00000,0.00000,0.00000,0.00000,0.00000,0.00000,0.00000,0.00000,0.00000,0.00000,0.00000,0.00000,0.00000,0.00000,0.00000,0.00000))
[1,135]((0.00000,0.00000,0.00000,-0.12500,0.12500,0.00000,0.00000,0.00000,0.00000,0.12500,0.00000,0.00000,0.12500,0.00000,0.00000,0.12500,0.00000,0.00000,0.00000,0.00000,0.00000,0.00000,0.00000,0.00000,-0.12500,0.00000,0.12500,-0.03125,0.03125,0.00000,-0.03125,0.03125,0.00000,-0.06250,0.06250,0.00000,0.00000,0.00000,0.00000,-0.03125,0.00000,0.00000,0.03125,0.00000,0.00000,0.03125,0.00000,-0.03125,0.06250,0.00000,-0.06250,0.03125,0.00000,-0.03125,0.00000,0.00000,0.00000,0.06250,-0.06250,0.00000,0.00000,0.00000,0.00000,-0.06250,0.00000,0.00000,-0.06250,0.00000,0.00000,-0.06250,0.00000,0.00000,0.00000,0.00000,0.00000,0.00000,0.00000,0.00000,0.06250,0.00000,-0.06250,0.00781,0.00000,0.00000,0.00000,0.00000,0.00000,0.00000,0.00000,0.00000,0.04688,-0.04688,0.00000,0.04688,-0.04688,0.00000,0.09375,-0.09375,0.00000,0.00000,0.00000,0.00000,0.04688,0.00000,0.00000,-0.04688,0.00000,0.00000,-0.04688,0.00000,0.04688,-0.09375,0.00000,0.09375,-0.04688,0.00000,0.04688,-0.00195,0.00000,0.00000,-0.00391,0.00000,0.00000,-0.00195,0.00000,0.00000,-0.00195,0.00000,0.00000,-0.00195,0.00000,0.00000,-0.00391,0.00000,0.00000))

type 2 side 3
[1,45]((0.06250,0.00000,-0.06250,0.00000,0.00000,-0.06250,0.00000,0.06250,-0.06250,0.00000,0.00000,0.00000,0.00000,0.00000,0.00000,0.00000,0.00000,0.00000,-0.03125,0.00000,0.03125,0.00000,0.00000,0.03125,0.00000,-0.03125,0.03125,0.00000,0.00000,-0.00391,0.00000,0.00000,0.00000,0.00000,0.00000,0.00000,0.00000,0.00000,0.00000,0.00000,0.00000,0.00000,0.00000,0.00000,0.00000))
[1,135]((0.12500,0.00000,-0.12500,0.00000,0.00000,0.00000,0.00000,0.00000,0.00000,0.00000,0.00000,0.12500,0.00000,0.00000,0.12500,0.00000,0.00000,0.12500,0.00000,0.00000,0.00000,0.00000,0.12500,-0.12500,0.00000,0.00000,0.00000,0.03125,0.00000,-0.03125,0.06250,0.00000,-0.06250,0.03125,0.00000,-0.03125,0.00000,0.00000,-0.03125,0.00000,0.00000,0.03125,0.00000,0.00000,0.00000,0.00000,-0.06250,0.06250,0.00000,-0.03125,0.03125,0.00000,-0.03125,0.03125,-0.06250,0.00000,0.06250,0.00000,0.00000,0.00000,0.00000,0.00000,0.00000,0.00000,0.00000,-0.06250,0.00000,0.00000,-0.06250,0.00000,0.00000,-0.06250,0.00000,0.00000,0.00000,0.00000,-0.06250,0.06250,0.00000,0.00000,0.00000,0.00000,0.00000,0.00000,0.00000,0.00000,0.00000,0.00000,0.00000,0.00781,-0.04688,0.00000,0.04688,-0.09375,0.00000,0.09375,-0.04688,0.00000,0.04688,0.00000,0.00000,0.04688,0.00000,0.00000,-0.04688,0.00000,0.00000,0.00000,0.00000,0.09375,-0.09375,0.00000,0.04688,-0.04688,0.00000,0.04688,-0.04688,0.00000,0.00000,-0.00391,0.00000,0.00000,-0.00195,0.00000,0.00000,-0.00195,0.00000,0.00000,-0.00195,0.00000,0.00000,-0.00391,0.00000,0.00000,-0.00195))

type 5 side 0
[1,135]((0.01562,0.00000,0.00000,-0.01562,0.01562,0.00000,0.00000,-0.01562,0.00000,0.00000,0.00000,0.01562,-0.01562,0.00000,0.01562,0.00000,-0.01562,0.01562,0.00000,0.00000,0.00000,0.00000,0.00000,0.00000,0.00000,0.00000,0.00000,0.00000,0.00000,0.00000,0.00000,0.00000,0.00000,0.00000,0.00000,0.00000,0.00391,0.00000,0.00000,-0.00391,0.00391,0.00000,0.00000,0.00391,0.00000,0.00391,0.00000,0.00000,0.00000,0.00000,0.00391,-0.00391,0.00000,0.00391,0.00000,0.00000,0.00391,0.00000,0.00391,0.00000,-0.00781,0.00000,0.00000,0.00781,-0.00781,0.00000,0.00000,0.00781,0.00000,0.00000,0.00000,-0.00781,0.00781,0.00000,-0.00781,0.00000,0.00781,-0.00781,0.00000,0.00000,0.00000,0.00000,0.00000,0.00000,0.00000,0.00000,0.00000,0.00000,0.00000,0.00000,0.00000,0.00000,0.00000,0.00000,0.00000,0.00000,0.00000,0.00000,0.00000,0.00000,0.00000,0.00000,0.00000,0.00000,0.00000,0.00000,0.00000,0.00000,0.00000,0.00000,0.00000,0.00000,0.00000,0.00000,0.00000,0.00000,0.00000,0.00000,0.00000,0.00000,0.00000,0.00000,0.00000,0.00000,0.00000,0.00000,0.00098,0.00000,0.00000,0.00000,0.00098,0.00000,0.00000,0.00000,0.00098))
[1,405]((0.00000,0.00000,0.00000,-0.03125,0.00000,0.00000,-0.03125,0.00000,0.00000,-0.03125,0.03125,0.00000,-0.03125,0.03125,0.00000,0.00000,0.00000,0.00000,0.00000,0.03125,0.00000,0.00000,0.00000,0.00000,0.00000,0.03125,0.00000,0.00000,0.00000,-0.03125,0.00000,0.00000,-0.03125,0.00000,0.00000,0.00000,-0.03125,0.00000,0.03125,0.00000,0.00000,0.00000,-0.03125,0.00000,0.03125,0.00000,0.00000,0.00000,0.00000,-0.03125,0.03125,0.00000,-0.03125,0.03125,0.01562,0.00000,0.00000,0.00781,0.00000,0.00000,0.00781,0.00000,0.00000,0.00781,-0.00781,0.00000,-0.00781,0.00781,0.00000,0.00000,0.00000,0.00000,0.00000,0.00781,0.00000,0.00000,0.01562,0.00000,0.00000,0.00781,0.00000,0.00000,0.00000,0.00781,0.00000,0.00000,0.00781,0.00000,0.00000,0.01562,0.00781,0.00000,-0.00781,0.00000,0.00000,0.00000,-0.00781,0.00000,0.00781,0.00000,0.00000,0.00000,0.00000,0.00781,-0.00781,0.00000,-0.00781,0.00781,0.00000,0.00000,0.00000,-0.00781,0.00000,0.00000,0.00000,0.00000,0.00000,-0.00781,0.00781,0.00000,-0.00781,0.00781,0.00000,-0.00781,0.00781,0.00000,0.00000,-0.00781,0.00000,0.00000,0.00000,0.00000,0.00000,0.00000,0.00000,0.00000,0.00000,0.00000,0.00000,0.00000,0.00000,-0.00781,0.00000,0.00000,0.00000,0.00000,0.00000,0.00000,0.00000,-0.00781,0.00000,0.00000,0.00000,-0.00781,0.00000,0.00781,-0.00781,0.00000,0.00781,-0.00781,0.00000,0.00781,0.00000,0.00000,-0.00781,0.00000,0.00000,0.00000,0.00000,0.00000,0.00000,0.00000,0.00000,0.00000,0.00000,0.00000,0.00000,0.00000,-0.00781,0.00000,0.00000,0.00000,0.00000,0.01562,0.00000,0.00000,0.01562,0.00000,0.00000,0.01562,-0.01562,0.00000,0.01562,-0.01562,0.00000,0.00000,0.00000,0.00000,0.00000,-0.01562,0.00000,0.00000,0.00000,0.00000,0.00000,-0.01562,0.00000,0.00000,0.00000,0.01562,0.00000,0.00000,0.01562,0.00000,0.00000,0.00000,0.01562,0.00000,-0.01562,0.00000,0.00000,0.00000,0.01562,0.00000,-0.01562,0.00000,0.00000,0.00000,0.00000,0.01562,-0.01562,0.00000,0.01562,-0.01562,0.00195,0.00000,0.00000,0.00195,0.00000,0.00000,0.00391,0.00000,0.00000,0.00195,-0.00195,0.00000,0.00000,0.00000,0.00000,-0.00195,0.00195,0.00000,0.00000,0.00195,0.00000,0.00000,0.00195,0.00000,0.00000,0.00391,0.00000,0.00195,0.00000,0.00000,0.00391,0.00000,0.00000,0.00195,0.00000,0.00000,0.00000,0.00000,0.00195,0.00000,0.00000,0.00195,0.00000,0.00000,0.00391,0.00195,0.00000,-0.00195,0.00000,0.00000,0.00000,-0.00195,0.00000,0.00195,0.00000,0.00000,0.00195,0.00000,0.00000,0.00195,0.00000,0.00000,0.00391,0.00000,0.00195,0.00000,0.00000,0.00391,0.00000,0.00000,0.00195,0.00000,0.00391,0.00000,0.00000,0.00195,0.00000,0.00000,0.00195,0.00000,0.00000,0.00195,-0.00195,0.00000,-0.00195,0.00195,0.00000,0.00000,0.00000,0.00000,0.00000,0.00195,0.00000,0.00000,0.00391,0.00000,0.00000,0.00195,0.00000,0.00391,0.00000,0.00000,0.00195,0.00000,0.00000,0.00195,0.00000,0.00000,0.00000,0.00000,0.00391,0.00000,0.00000,0.00195,0.00000,0.00000,0.00195,0.00195,0.00000,-0.00195,-0.00195,0.00000,0.00195,0.00000,0.00000,0.00000,0.00000,0.00000,0.00195,0.00000,0.00000,0.00391,0.00000,0.00000,0.00195,0.00000,0.00391,0.00000,0.00000,0.00195,0.00000,0.00000,0.00195,0.00000,0.00000,0.00000,0.00000,0.00000,0.00000,0.00000,0.00000,0.00000,0.00000,0.00000,0.00000,0.00000,0.00000,0.00000,0.00000,0.00000,0.00000,0.00000,0.00000,0.00000,0.00000,0.00000,0.00000,0.00000,0.00000,0.00000,0.00000))

type 2 side 0
[1,45]((0.00000,-0.08333,0.00000,0.00000,-0.08333,0.00000,0.00000,-0.08333,0.00000,0.00000,0.00000,0.00000,0.00000,0.00000,0.00000,0.00000,0.00000,0.00000,0.00000,0.04167,0.00000,0.00000,0.04167,0.00000,0.00000,0.04167,0.00000,0.00000,-0.00926,0.00000,0.00000,0.00000,0.00000,0.00000,0.00000,0.00000,0.00000,0.00000,0.00000,0.00000,0.00000,0.00000,0.00000,0.00000,0.00000))

type 2 side 0
[1,45]((0.02778,0.02778,0.02778,0.02778,0.02778,0.02778,0.02778,0.02778,0.02778,0.00000,0.00000,0.00000,0.00000,0.00000,0.00000,0.00000,0.00000,0.00000,-0.01389,-0.01389,-0.01389,-0.01389,-0.01389,-0.01389,-0.01389,-0.01389,-0.01389,0.00309,0.00309,0.00309,0.00000,0.00000,0.00000,0.00000,0.00000,0.00000,0.00000,0.00000,0.00000,0.00000,0.00000,0.00000,0.00000,0.00000,0.00000))

type 2 side 0
[1,45]((-0.08333,0.00000,0.00000,-0.08333,0.00000,0.00000,-0.08333,0.00000,0.00000,0.00000,0.00000,0.00000,0.00000,0.00000,0.00000,0.00000,0.00000,0.00000,0.04167,0.00000,0.00000,0.04167,0.00000,0.00000,0.04167,0.00000,0.00000,-0.00926,0.00000,0.00000,0.00000,0.00000,0.00000,0.00000,0.00000,0.00000,0.00000,0.00000,0.00000,0.00000,0.00000,0.00000,0.00000,0.00000,0.00000))

type 2 side 0
[1,45]((0.00000,0.00000,-0.08333,0.00000,0.00000,-0.08333,0.00000,0.00000,-0.08333,0.00000,0.00000,0.00000,0.00000,0.00000,0.00000,0.00000,0.00000,0.00000,0.00000,0.00000,0.04167,0.00000,0.00000,0.04167,0.00000,0.00000,0.04167,0.00000,0.00000,-0.00926,0.00000,0.00000,0.00000,0.00000,0.00000,0.00000,0.00000,0.00000,0.00000,0.00000,0.00000,0.00000,0.00000,0.00000,0.00000))
